{
    "vvvideo": {
        "osc_input": {
            "accumulator": "0",
            "accumulator_max": "200",
            "data": "0",
            "decrement_enable": "0",
            "decrement_unit": "0.1",
            "input_port": "10000",
            "input_scaler": "0.001",
            "learn": "0",
            "string_to_match": "/encoder/",
            "timeout_millis": "200"
        },
        "osc_output": {
            "output_data": "0.832948",
            "output_ip": "localhost",
            "output_maximum": "1",
            "output_message": "/speed/",
            "output_minimum": "-1",
            "output_port": "10001",
            "scale_factor": "0.1"
        },
        "sync": {
            "sync_enable": "1",
            "sync_receive_port": "16667",
            "sync_send_address": "localhost",
            "sync_send_port": "16666"
        },
        "system": {
            "fullscreen": "1",
            "get_params": "0",
            "hide_mouse": "0",
            "hostname": "gm1.local\n",
            "load_conf": "0",
            "of_framerate": "60",
            "save_conf": "1",
            "videoplayer_ab": "0"
        },
        "vplay_1": {
            "backward": "0",
            "computed_rate": "8.32948",
            "direct_drive_b": "1",
            "direct_drive_f": "3275.84",
            "disable_tick": "0",
            "enable": "1",
            "fbo_res_x": "1920",
            "fbo_res_y": "1080",
            "frame": "1787",
            "frame_float": "0.055842",
            "load_file": "0",
            "player_file": "ecrans_0008-15fps-16x-RIFE-RIFE3.1-240fps",
            "player_path": "/Users/gllm/Documents/_sync/diaspora/deploy_objet_monde/SynologyDrive/medias/ecrans_0008-15fps-16x-RIFE-RIFE3.1-240fps.mov",
            "player_rate": "3275.84",
            "rate_multiplicator": "2",
            "rate_range": "1",
            "set_playhead": "0"
        },
        "vplay_2": {
            "backward": "0",
            "computed_rate": "8.32948",
            "direct_drive_b": "1",
            "direct_drive_f": "3275.84",
            "disable_tick": "0",
            "enable": "0",
            "fbo_res_x": "1920",
            "fbo_res_y": "1080",
            "frame": "13595",
            "frame_float": "0.212365",
            "load_file": "0",
            "player_file": "voitures-png-brute-16x-RIFE-RIFE3.1-240fps",
            "player_path": "/Users/gllm/Documents/_sync/diaspora/deploy_objet_monde/SynologyDrive/medias/voitures-png-brute-16x-RIFE-RIFE3.1-240fps.mov",
            "player_rate": "3275.84",
            "rate_multiplicator": "2",
            "rate_range": "1",
            "set_playhead": "0"
        }
    }
}