{
    "vvvideo": {
        "osc_input": {
            "accumulator": "0",
            "accumulator_max": "200",
            "data": "0",
            "decrement_enable": "0",
            "decrement_unit": "0.1",
            "input_port": "10000",
            "input_scaler": "0.001",
            "learn": "0",
            "string_to_match": "/encoder/",
            "timeout_millis": "200"
        },
        "osc_output": {
            "output_data": "-0.07",
            "output_ip": "localhost",
            "output_maximum": "1",
            "output_message": "/speed/",
            "output_minimum": "-1",
            "output_port": "10001",
            "scale_factor": "0.1"
        },
        "sync": {
            "sync_enable": "1",
            "sync_receive_port": "16667",
            "sync_send_address": "localhost",
            "sync_send_port": "16666"
        },
        "system": {
            "auto_swap_ab": "0",
            "fullscreen": "0",
            "get_params": "0",
            "hide_mouse": "0",
            "hostname": "M1-11",
            "load_conf": "0",
            "of_framerate": "60",
            "save_conf": "1",
            "videoplayer_ab": "0"
        },
        "vplay_1": {
            "backward": "0",
            "computed_rate": "-0.7",
            "direct_drive_b": "1",
            "direct_drive_f": "-0.35",
            "disable_tick": "0",
            "enable": "1",
            "fbo_res_x": "1920",
            "fbo_res_y": "1080",
            "frame": "1257",
            "frame_float": "0.0314242",
            "load_file": "0",
            "player_a_file": "",
            "player_a_frame": "0",
            "player_a_frame_float": "0",
            "player_a_load": "0",
            "player_a_path": "",
            "player_b_file": "",
            "player_b_frame": "0",
            "player_b_frame_float": "0",
            "player_b_load": "0",
            "player_b_path": "",
            "player_file": "ecrans_0024-15fps_20x",
            "player_path": "/Users/sabrina/Documents/_sync/objets-monde/medias/ecrans_0024-15fps_20x.mov",
            "player_rate": "-0.35",
            "rate_multiplicator": "2",
            "rate_range": "1",
            "set_playhead": "0"
        },
        "vplay_2": {
            "backward": "0",
            "computed_rate": "-0.7",
            "direct_drive_b": "1",
            "direct_drive_f": "-0.35",
            "disable_tick": "0",
            "enable": "0",
            "fbo_res_x": "1920",
            "fbo_res_y": "1080",
            "frame": "1257",
            "frame_float": "0.0196354",
            "load_file": "0",
            "player_a_file": "",
            "player_a_frame": "0",
            "player_a_frame_float": "0",
            "player_a_load": "0",
            "player_a_path": "",
            "player_b_file": "",
            "player_b_frame": "0",
            "player_b_frame_float": "0",
            "player_b_load": "0",
            "player_b_path": "",
            "player_file": "voitures-png-brute-16x-RIFE-RIFE3.1-240fps",
            "player_path": "/Users/sabrina/Documents/_sync/objets-monde/medias/voitures-png-brute-16x-RIFE-RIFE3.1-240fps.mov",
            "player_rate": "-0.35",
            "rate_multiplicator": "2",
            "rate_range": "1",
            "set_playhead": "0"
        }
    }
}