{
    "vvvideo": {
        "osc_input": {
            "accumulator": "0",
            "accumulator_max": "200",
            "data": "0",
            "decrement_enable": "0",
            "decrement_unit": "0.1",
            "input_port": "10000",
            "input_scaler": "0.001",
            "learn": "0",
            "string_to_match": "/encoder/",
            "timeout_millis": "200"
        },
        "osc_output": {
            "output_data": "-0.194583",
            "output_ip": "localhost",
            "output_maximum": "1",
            "output_message": "/speed/",
            "output_minimum": "-1",
            "output_port": "10001",
            "scale_factor": "0.1"
        },
        "sync": {
            "sync_enable": "1",
            "sync_receive_port": "16667",
            "sync_send_address": "localhost",
            "sync_send_port": "16666"
        },
        "system": {
            "fullscreen": "1",
            "get_params": "0",
            "hide_mouse": "1",
            "hostname": "M1-11.local\n",
            "load_conf": "0",
            "of_framerate": "60",
            "save_conf": "1",
            "videoplayer_ab": "0"
        },
        "vplay_1": {
            "backward": "0",
            "computed_rate": "-1.94583",
            "direct_drive_b": "1",
            "direct_drive_f": "-0.972917",
            "disable_tick": "0",
            "enable": "1",
            "fbo_res_x": "1920",
            "fbo_res_y": "1080",
            "frame": "17593",
            "frame_float": "0.439814",
            "load_file": "0",
            "player_file": "ecrans_0024-15fps_20x",
            "player_path": "/Users/sabrina/Documents/objets-monde/deploiement-objets-monde/medias/ecrans_0024-15fps_20x.mov",
            "player_rate": "-0.972917",
            "rate_multiplicator": "2",
            "rate_range": "1",
            "set_playhead": "0"
        },
        "vplay_2": {
            "backward": "0",
            "computed_rate": "-1.94583",
            "direct_drive_b": "1",
            "direct_drive_f": "-0.972917",
            "disable_tick": "0",
            "enable": "0",
            "fbo_res_x": "1920",
            "fbo_res_y": "1080",
            "frame": "17593",
            "frame_float": "0.274818",
            "load_file": "0",
            "player_file": "voitures-png-brute-16x-RIFE-RIFE3.1-240fps",
            "player_path": "/Users/sabrina/Documents/objets-monde/deploiement-objets-monde/medias/voitures-png-brute-16x-RIFE-RIFE3.1-240fps.mov",
            "player_rate": "-0.972917",
            "rate_multiplicator": "2",
            "rate_range": "1",
            "set_playhead": "0"
        }
    }
}