{
    "vvvideo": {
        "osc_input": {
            "accumulator": "0",
            "accumulator_max": "200",
            "data": "0",
            "decrement_enable": "0",
            "decrement_unit": "0.1",
            "input_port": "10000",
            "input_scaler": "0.001",
            "learn": "0",
            "string_to_match": "/encoder/",
            "timeout_millis": "200"
        },
        "osc_output": {
            "output_data": "0.631834",
            "output_ip": "localhost",
            "output_maximum": "1",
            "output_message": "/speed/",
            "output_minimum": "-1",
            "output_port": "10001",
            "scale_factor": "0.1"
        },
        "sync": {
            "sync_enable": "1",
            "sync_receive_port": "16667",
            "sync_send_address": "localhost",
            "sync_send_port": "16666"
        },
        "system": {
            "auto_swap_ab": "0",
            "fullscreen": "1",
            "get_params": "0",
            "hide_mouse": "1",
            "hostname": "M1-9",
            "load_conf": "0",
            "of_framerate": "60",
            "save_conf": "1",
            "videoplayer_ab": "1"
        },
        "vplay_1": {
            "backward": "1",
            "computed_rate": "6.31834",
            "direct_drive_b": "1",
            "direct_drive_f": "-3.15917",
            "disable_tick": "0",
            "enable": "0",
            "fbo_res_x": "1920",
            "fbo_res_y": "1080",
            "player_a_file": "AA_ecrans-16x",
            "player_a_frame": "137018",
            "player_a_frame_float": "0.713572",
            "player_a_load": "0",
            "player_a_path": "/Users/sabrina/src/objets-monde/medias/video/AA_ecrans-16x.mov",
            "player_b_file": "AB_ecrans16x-reverse",
            "player_b_frame": "54998",
            "player_b_frame_float": "0.286423",
            "player_b_load": "0",
            "player_b_path": "/Users/sabrina/src/objets-monde/medias/video/AB_ecrans16x-reverse.mov",
            "player_rate": "-3.15917",
            "rate_multiplicator": "2",
            "rate_range": "1",
            "set_playhead": "0"
        },
        "vplay_2": {
            "backward": "1",
            "computed_rate": "6.31834",
            "direct_drive_b": "1",
            "direct_drive_f": "-3.15917",
            "disable_tick": "0",
            "enable": "1",
            "fbo_res_x": "1920",
            "fbo_res_y": "1080",
            "player_a_file": "BA_voiture-16x",
            "player_a_frame": "137018",
            "player_a_frame_float": "0.713691",
            "player_a_load": "0",
            "player_a_path": "/Users/sabrina/src/objets-monde/medias/video/BA_voiture-16x.mov",
            "player_b_file": "BB_voiture16x-reverse",
            "player_b_frame": "54966",
            "player_b_frame_float": "0.286304",
            "player_b_load": "0",
            "player_b_path": "/Users/sabrina/src/objets-monde/medias/video/BB_voiture16x-reverse.mov",
            "player_rate": "-3.15917",
            "rate_multiplicator": "2",
            "rate_range": "1",
            "set_playhead": "0"
        }
    }
}