{
    "vvvideo": {
        "osc_input": {
            "accumulator": "0",
            "accumulator_max": "200",
            "data": "0",
            "decrement_enable": "0",
            "decrement_unit": "0.1",
            "input_port": "10000",
            "input_scaler": "0.001",
            "learn": "0",
            "string_to_match": "/encoder/",
            "timeout_millis": "200"
        },
        "osc_output": {
            "output_data": "-0.158333",
            "output_ip": "localhost",
            "output_maximum": "1",
            "output_message": "/speed/",
            "output_minimum": "-1",
            "output_port": "10001",
            "scale_factor": "0.1"
        },
        "sync": {
            "sync_enable": "1",
            "sync_receive_port": "16667",
            "sync_send_address": "localhost",
            "sync_send_port": "16666"
        },
        "system": {
            "auto_swap_ab": "0",
            "fullscreen": "1",
            "get_params": "0",
            "hide_mouse": "0",
            "hostname": "objet",
            "load_conf": "0",
            "of_framerate": "60",
            "save_conf": "1",
            "videoplayer_ab": "0"
        },
        "vplay_1": {
            "backward": "0",
            "computed_rate": "-1.58333",
            "direct_drive_b": "1",
            "direct_drive_f": "-0.791667",
            "disable_tick": "0",
            "enable": "1",
            "fbo_res_x": "1920",
            "fbo_res_y": "1080",
            "player_a_file": "AA_ecrans-16x",
            "player_a_frame": "6704",
            "player_a_frame_float": "0.0349136",
            "player_a_load": "0",
            "player_a_path": "/Users/objets/Documents/_sync/deploiement-objets-monde/medias/AA_ecrans-16x.mov",
            "player_b_file": "AB_ecrans16x-reverse",
            "player_b_frame": "185312",
            "player_b_frame_float": "0.965081",
            "player_b_load": "0",
            "player_b_path": "/Users/objets/Documents/_sync/deploiement-objets-monde/medias/AB_ecrans16x-reverse.mov",
            "player_rate": "-0.791667",
            "rate_multiplicator": "2",
            "rate_range": "1",
            "set_playhead": "0"
        },
        "vplay_2": {
            "backward": "0",
            "computed_rate": "-1.58333",
            "direct_drive_b": "1",
            "direct_drive_f": "-0.791667",
            "disable_tick": "0",
            "enable": "0",
            "fbo_res_x": "1920",
            "fbo_res_y": "1080",
            "player_a_file": "BA_voiture-16x",
            "player_a_frame": "1351",
            "player_a_frame_float": "0.00703701",
            "player_a_load": "0",
            "player_a_path": "/Users/objets/Documents/_sync/deploiement-objets-monde/medias/BA_voiture-16x.mov",
            "player_b_file": "BB_voiture16x-reverse",
            "player_b_frame": "190633",
            "player_b_frame_float": "0.992958",
            "player_b_load": "0",
            "player_b_path": "/Users/objets/Documents/_sync/deploiement-objets-monde/medias/BB_voiture16x-reverse.mov",
            "player_rate": "-0.791667",
            "rate_multiplicator": "2",
            "rate_range": "1",
            "set_playhead": "0"
        }
    }
}